<?xml version="1.0" encoding="utf-8"?>
<!-- Generator: Adobe Illustrator 23.0.6, SVG Export Plug-In . SVG Version: 6.00 Build 0)  -->
<svg version="1.1" id="Ñëîé_1" xmlns="http://www.w3.org/2000/svg" xmlns:xlink="http://www.w3.org/1999/xlink" x="0px" y="0px"
	 viewBox="0 0 1700.8 180.1" style="enable-background:new 0 0 1700.8 180.1;" xml:space="preserve">
<style type="text/css">
	.st0{fill:url(#SVGID_1_);}
	.st1{fill:url(#SVGID_2_);}
	.st2{fill:url(#SVGID_3_);}
	.st3{fill-rule:evenodd;clip-rule:evenodd;fill:#FFFFFF;}
	.st4{fill:url(#SVGID_4_);}
	.st5{fill:url(#SVGID_5_);}
	.st6{fill:#F9FF87;}
	.st7{fill:url(#SVGID_6_);}
</style>
<title>Artboard 5</title>
<g>
	<linearGradient id="SVGID_1_" gradientUnits="userSpaceOnUse" x1="850.3949" y1="1.8387" x2="850.3949" y2="177.5405">
		<stop  offset="0" style="stop-color:#FFFFFF"/>
		<stop  offset="1" style="stop-color:#3AD6FF;stop-opacity:0.3"/>
	</linearGradient>
	<rect x="0" y="1.8" class="st0" width="1700.8" height="175.7"/>
	<linearGradient id="SVGID_2_" gradientUnits="userSpaceOnUse" x1="-6.4228" y1="161.4096" x2="815.8921" y2="161.4096">
		<stop  offset="3.968250e-03" style="stop-color:#0D9475"/>
		<stop  offset="1.252438e-02" style="stop-color:#0E9574"/>
		<stop  offset="0.3455" style="stop-color:#45AD5E"/>
		<stop  offset="0.6328" style="stop-color:#6DBE4E"/>
		<stop  offset="0.8604" style="stop-color:#85C944"/>
		<stop  offset="1" style="stop-color:#8ECD40"/>
	</linearGradient>
	<path class="st1" d="M0,177.5h821.5c-6.4-8.3-53.1-21.3-112.3-18.1c-37,2-74.5-6.9-115.6-5.6c-57.9,1.9-52,7.6-116.2,7.5
		c-73.1-0.1-116-13.5-183.5-12.3c-58.8,1.1-72.7,8.4-145.1,8.9c-48.1,0.3-95.2-12.8-132.3-12.8c-5.6,0-11.1,0.1-16.5,0.2V177.5z"/>
	
		<linearGradient id="SVGID_3_" gradientUnits="userSpaceOnUse" x1="-1548.9521" y1="161.4096" x2="-404.7141" y2="161.4096" gradientTransform="matrix(-1 0 0 1 160.7756 0)">
		<stop  offset="3.968250e-03" style="stop-color:#0D9475"/>
		<stop  offset="1.252438e-02" style="stop-color:#0E9574"/>
		<stop  offset="0.3455" style="stop-color:#45AD5E"/>
		<stop  offset="0.6328" style="stop-color:#6DBE4E"/>
		<stop  offset="0.8604" style="stop-color:#85C944"/>
		<stop  offset="1" style="stop-color:#8ECD40"/>
	</linearGradient>
	<path class="st2" d="M1700.8,177.5H557.7c8.9-8.3,73.9-21.3,156.3-18.1c51.5,2,103.7-6.9,160.8-5.6c80.6,1.9,72.3,7.6,161.7,7.5
		c101.7-0.1,161.4-13.5,255.3-12.3c81.8,1.1,101.1,8.4,201.9,8.9c66.9,0.3,132.4-12.8,184-12.8c7.7,0,15.4,0.1,23,0.2V177.5z"/>
	<g>
		<path class="st3" d="M413.8,118.9c2.3-1,7.1-2.9,7.8-3.1c0.6-0.2,2.2,0.2,3.1,0.2l1-0.3c0,0,0,0,0-0.1c0-0.9,0.8-1.7,1.7-1.7
			c0,0,0,0,0.1,0l3.2-12.1c0.1-0.2,0.3-0.3,0.5-0.3c0.2,0.1,0.3,0.3,0.3,0.7c-0.2,2.5-1,7.6-1.2,8.3c-0.2,0.6-1.2,1.8-1.7,2.6
			l-0.3,1c0.5,0.3,0.9,0.8,0.9,1.5c0,0.3-0.1,0.6-0.3,0.9l8.8,8.8c0.1,0.1,0.1,0.4,0,0.5c-0.2,0.2-0.4,0.1-0.7-0.1
			c-2-1.4-6-4.7-6.6-5.2c-0.5-0.5-0.9-2-1.3-2.8l-0.7-0.7c-0.1,0.1-0.2,0.1-0.3,0.1l1,60.3h-3.3l1-60.3c-0.4-0.1-0.7-0.4-0.9-0.8
			l-12.1,3.2c-0.2,0.1-0.4-0.1-0.5-0.3C413.3,119.2,413.5,119,413.8,118.9z"/>
		<path class="st3" d="M445.8,119.1c2.2-0.4,6.9-0.9,7.5-0.9c0.6,0,1.9,0.7,2.7,0.9h1c0.2-0.7,0.8-1.2,1.5-1.2c0.2,0,0.3,0,0.4,0.1
			l5.7-9.8c0.1-0.2,0.3-0.2,0.5-0.1c0.2,0.1,0.2,0.3,0.1,0.7c-0.8,2.1-2.7,6.4-3,7c-0.3,0.5-1.5,1.3-2.1,1.8l-0.5,0.8
			c0.3,0.3,0.5,0.7,0.5,1.1c0,0.4-0.2,0.8-0.5,1.1l5.7,9.8c0.1,0.2,0,0.4-0.1,0.5c-0.2,0.1-0.4,0-0.6-0.3c-1.4-1.7-4.2-5.5-4.5-6.1
			c-0.3-0.5-0.4-1.9-0.5-2.8l-0.4-0.6l0.9,56.4h-3l0.9-56.6c-0.5-0.2-0.8-0.6-0.9-1.1h-11.4c-0.2,0-0.3-0.2-0.3-0.3
			C445.3,119.3,445.5,119.2,445.8,119.1z"/>
		<path class="st3" d="M474.8,121.8c0-0.2,0.2-0.2,0.5-0.2c1.9,0.2,5.9,0.8,6.5,0.9c0.5,0.1,1.4,1,2,1.4l0.8,0.2
			c0.2-0.4,0.7-0.7,1.2-0.7c0.3,0,0.5,0.1,0.7,0.2l6.9-6.9c0.1-0.1,0.3-0.1,0.4,0c0.1,0.1,0.1,0.3-0.1,0.6c-1.1,1.6-3.7,4.7-4.1,5.1
			c-0.4,0.4-1.5,0.7-2.2,1.1l-0.6,0.6c0.1,0.2,0.2,0.4,0.2,0.7c0,0.5-0.3,0.9-0.7,1.2l2.6,9.5c0,0.2-0.1,0.3-0.2,0.4
			c-0.2,0-0.3-0.1-0.5-0.4c-0.6-1.2-1.4-3.3-1.9-4.8l0.7,47h-2.6l0.8-51.6c-0.5-0.2-0.8-0.7-0.8-1.2c0,0,0,0,0,0l-9.5-2.5
			C474.9,122.1,474.8,121.9,474.8,121.8z"/>
	</g>
	<linearGradient id="SVGID_4_" gradientUnits="userSpaceOnUse" x1="-9.094947e-13" y1="170.68" x2="492.2269" y2="170.68">
		<stop  offset="3.968250e-03" style="stop-color:#61BF26"/>
		<stop  offset="0.4304" style="stop-color:#87D73D"/>
		<stop  offset="0.7835" style="stop-color:#9FE74C"/>
		<stop  offset="1" style="stop-color:#A8ED52"/>
	</linearGradient>
	<path class="st4" d="M0,177.5h578.8c-14.9-5.1-63.2-10.5-114.4-9.4c-47.8,1-59.9,3.2-112.4,3.2c-52.4,0-83.3-8-131.7-7.5
		c-42.2,0.4-61.6,6.1-113.5,6.3c-34.5,0.1-68.2-4.9-94.9-4.9c-4,0-7.9,0-11.9,0.1V177.5z"/>
	<linearGradient id="SVGID_5_" gradientUnits="userSpaceOnUse" x1="946.8952" y1="168.488" x2="1700.79" y2="168.488">
		<stop  offset="0" style="stop-color:#DBF03C"/>
		<stop  offset="1" style="stop-color:#8ECD40"/>
	</linearGradient>
	<path class="st5" d="M1700.8,177.5H946.9c14-2.8,45.4-6.8,70.6-6.7c22,0.1,31.1,2.3,54.6,1.9c24.6-0.5,43.4-5.9,78-6.4
		c36.5-0.5,63.5,4.1,90.4,3.9c28.5-0.2,37.5-4.5,60.8-5.3c16.2-0.6,28.5,2.7,44.4,3.2c14.4,0.4,47.8-1.4,66.6-2.1
		c68-2.5,40,8.6,104.1-0.4c18.8-2.7,16.6,7.6,45.6,6.3c17.1-0.8,41.6-11.7,59.7-7.1c22.5,5.7,45-7.4,79.2-5V177.5z"/>
	<path class="st6" d="M1700.8,180.1c0,0-709.7-1.2-801-1.3c-48,0-105-1.3-105-1.3h906V180.1z"/>
	
		<linearGradient id="SVGID_6_" gradientUnits="userSpaceOnUse" x1="1075.7822" y1="168.488" x2="1617.5742" y2="168.488" gradientTransform="matrix(-1 0 0 1 1617.5745 0)">
		<stop  offset="0" style="stop-color:#DBF03C"/>
		<stop  offset="1" style="stop-color:#8ECD40"/>
	</linearGradient>
	<path class="st7" d="M0,177.5h541.8c-10.1-2.8-32.6-6.8-50.8-6.7c-15.8,0.1-22.3,2.3-39.2,1.9c-17.7-0.5-31.2-5.9-56-6.4
		c-26.2-0.5-45.6,4.1-64.9,3.9c-20.5-0.2-26.9-4.5-43.7-5.3c-11.7-0.6-20.5,2.7-31.9,3.2c-10.3,0.4-34.4-1.4-47.9-2.1
		c-48.8-2.5-28.8,8.6-74.8-0.4c-13.5-2.7-11.9,7.6-32.8,6.3c-12.3-0.8-29.9-11.7-42.9-7.1c-16.2,5.7-32.3-7.4-56.9-5L0,177.5z"/>
</g>
</svg>
